
material Material #25
bTwoSided=false
cAmbient=(color 252 252 252)
cDiffuse=(color 252 252 252)
pOpacity=100.0
cSpecular=(color 252 252 252)
pSpecularLevel=5.0
pGlossiness=25.0
cSelfIllumColor=(color 0 0 0)
pSelfIllumAmount=0.0
bUseSelfIllumColor=false
bLightMap=false
bUnlighted=false
bStainedGlassWindow=false
bAlphaTest=false
bForceZWrite=false
bForceNoZWrite=false
bWater=false
bWaterUseSceneEnvMapAbove=false
bWaterUseSceneEnvMapUnder=false
fBumpUScale=0.01
fBumpVScale=0.01
fBumpUSpeed=0.01
fBumpVSpeed=0.01
fDisplaceMapUScale=0.005
fDisplaceMapVScale=0.005
fDisplaceMapUSpeed=0.005
fDisplaceMapVSpeed=0.005
fWaterHeightFactor=1.0
iWaterPoolID=0
bCalcWaterLightmap=false
bEnableWaterSplash=true
bColorVertex=false
bAlphaVertex=false
iAlphaVertexChannel=0
bAlphaBlend=false
iBlendSrcFunc=1
iBlendDestFunc=1
iShader=1
fZBias=0.0
iLightMapChannel=2
iShaderType=1
bUserColor=false
bSpecular=false
bNormalShader=true
bPerPixelLightingShader=false
cUserColor=(color 255 0 255)
bExportTextureMatrix=false
bEnableSlot_1=true
bEnableSlot_2=false
bEnableSlot_3=false
bEnableSlot_4=false
bEnableSlot_5=false
bEnableSlot_6=false
bEnableSlot_7=false
bEnableSlot_8=false
bTexGen_1=false
bTexGen_2=false
bTexGen_3=false
bTexGen_4=false
bTexGen_5=false
bTexGen_6=false
bTexGen_7=false
bTexGen_8=false
tTexture_1=Map #0:Bitmap
tTexture_2=undefined
tTexture_3=undefined
tTexture_4=undefined
tTexture_5=undefined
tTexture_6=undefined
tTexture_7=undefined
tTexture_8=undefined
cConstant_1=(color 255 255 255)
iRgbOperation_1=2
iRgbBlendSource_1=1
iRgbArg0_1=1
iRgbArg1_1=2
iRgbArg2_1=1
iRgbArg0Operand_1=1
iRgbArg1Operand_1=1
iRgbArg2Operand_1=1
iAlphaOperation_1=2
iAlphaBlendSource_1=1
iAlphaArg0_1=1
iAlphaArg1_1=2
iAlphaArg2_1=1
iAlphaArg0Operand_1=3
iAlphaArg1Operand_1=3
iAlphaArg2Operand_1=3
iTextureShader_1=1
iConstantAlpha_1=255
cConstant_2=(color 255 255 255)
iRgbOperation_2=1
iRgbBlendSource_2=1
iRgbArg0_2=1
iRgbArg1_2=1
iRgbArg2_2=1
iRgbArg0Operand_2=1
iRgbArg1Operand_2=1
iRgbArg2Operand_2=1
iAlphaOperation_2=1
iAlphaBlendSource_2=1
iAlphaArg0_2=1
iAlphaArg1_2=1
iAlphaArg2_2=1
iAlphaArg0Operand_2=3
iAlphaArg1Operand_2=3
iAlphaArg2Operand_2=3
iTextureShader_2=1
iConstantAlpha_2=255
cConstant_3=(color 255 255 255)
iRgbOperation_3=1
iRgbBlendSource_3=1
iRgbArg0_3=1
iRgbArg1_3=1
iRgbArg2_3=1
iRgbArg0Operand_3=1
iRgbArg1Operand_3=1
iRgbArg2Operand_3=1
iAlphaOperation_3=1
iAlphaBlendSource_3=1
iAlphaArg0_3=1
iAlphaArg1_3=1
iAlphaArg2_3=1
iAlphaArg0Operand_3=3
iAlphaArg1Operand_3=3
iAlphaArg2Operand_3=3
iTextureShader_3=1
iConstantAlpha_3=255
cConstant_4=(color 255 255 255)
iRgbOperation_4=1
iRgbBlendSource_4=1
iRgbArg0_4=1
iRgbArg1_4=1
iRgbArg2_4=1
iRgbArg0Operand_4=1
iRgbArg1Operand_4=1
iRgbArg2Operand_4=1
iAlphaOperation_4=1
iAlphaBlendSource_4=1
iAlphaArg0_4=1
iAlphaArg1_4=1
iAlphaArg2_4=1
iAlphaArg0Operand_4=3
iAlphaArg1Operand_4=3
iAlphaArg2Operand_4=3
iTextureShader_4=1
iConstantAlpha_4=255
texture 1
bitmap.clipu=0.0
bitmap.clipv=0.0
bitmap.clipw=1.0
bitmap.cliph=1.0
bitmap.Jitter=1.0
bitmap.useJitter=false
bitmap.apply=false
bitmap.cropPlace=0
bitmap.filtering=0
bitmap.monoOutput=1
bitmap.rgbOutput=0
bitmap.alphaSource=2
bitmap.preMultAlpha=false
bitmap.bitmap=BitMap:W:\Database\Stuff\Tryker\Agents\_textures\monster\TR_MO_Kami_caster.png
bitmap.coords=MtlBase:Placement
bitmap.output=MtlBase:Output
bitmap.filename=W:\Database\Stuff\Tryker\Agents\_textures\monster\TR_MO_Kami_caster.png
bitmap.starttime=0f
bitmap.playBackRate=1.0
bitmap.endCondition=0
bitmap.tieTimeToMatIDs=false
bitmap.coords.blur=1.0
bitmap.coords.mapping=0
bitmap.coords.mapChannel=1
bitmap.coords.mappingType=0
bitmap.coords.UVW_Type=0
bitmap.coords.U_Mirror=false
bitmap.coords.V_Mirror=false
bitmap.coords.U_Tile=true
bitmap.coords.V_Tile=true
bitmap.coords.showMapOnBack=true
bitmap.coords.Noise_On=false
bitmap.coords.Noise_Animate=false
bitmap.coords.UVTransform=(matrix3 [1,0,0] [0,1,0] [0,0,1] [0,0,0])
bitmap.coords.realWorldScale=false
bitmap.coords.realWorldHeight=1.0
bitmap.coords.realWorldWidth=1.0
bitmap.coords.phase=0.0
bitmap.coords.V_Tiling=1.0
bitmap.coords.U_Angle=0.0
bitmap.coords.V_Angle=0.0
bitmap.coords.W_Angle=0.0
bitmap.coords.Noise_Amount=1.0
bitmap.coords.Noise_Size=1.0
bitmap.coords.Noise_Levels=1
bitmap.coords.Blur_Offset=0.0
bitmap.coords.U_Offset=0.0
bitmap.coords.V_Offset=0.0
bitmap.coords.U_Tiling=1.0

material Material #26
bTwoSided=true
cAmbient=(color 252 252 252)
cDiffuse=(color 252 252 252)
pOpacity=100.0
cSpecular=(color 252 252 252)
pSpecularLevel=5.0
pGlossiness=25.0
cSelfIllumColor=(color 0 0 0)
pSelfIllumAmount=0.0
bUseSelfIllumColor=false
bLightMap=false
bUnlighted=false
bStainedGlassWindow=false
bAlphaTest=false
bForceZWrite=false
bForceNoZWrite=false
bWater=false
bWaterUseSceneEnvMapAbove=false
bWaterUseSceneEnvMapUnder=false
fBumpUScale=0.01
fBumpVScale=0.01
fBumpUSpeed=0.01
fBumpVSpeed=0.01
fDisplaceMapUScale=0.005
fDisplaceMapVScale=0.005
fDisplaceMapUSpeed=0.005
fDisplaceMapVSpeed=0.005
fWaterHeightFactor=1.0
iWaterPoolID=0
bCalcWaterLightmap=false
bEnableWaterSplash=true
bColorVertex=false
bAlphaVertex=false
iAlphaVertexChannel=0
bAlphaBlend=false
iBlendSrcFunc=1
iBlendDestFunc=1
iShader=1
fZBias=0.0
iLightMapChannel=2
iShaderType=1
bUserColor=false
bSpecular=false
bNormalShader=true
bPerPixelLightingShader=false
cUserColor=(color 255 0 255)
bExportTextureMatrix=false
bEnableSlot_1=true
bEnableSlot_2=false
bEnableSlot_3=false
bEnableSlot_4=false
bEnableSlot_5=false
bEnableSlot_6=false
bEnableSlot_7=false
bEnableSlot_8=false
bTexGen_1=false
bTexGen_2=false
bTexGen_3=false
bTexGen_4=false
bTexGen_5=false
bTexGen_6=false
bTexGen_7=false
bTexGen_8=false
tTexture_1=Map #0:Bitmap
tTexture_2=undefined
tTexture_3=undefined
tTexture_4=undefined
tTexture_5=undefined
tTexture_6=undefined
tTexture_7=undefined
tTexture_8=undefined
cConstant_1=(color 255 255 255)
iRgbOperation_1=2
iRgbBlendSource_1=1
iRgbArg0_1=1
iRgbArg1_1=2
iRgbArg2_1=1
iRgbArg0Operand_1=1
iRgbArg1Operand_1=1
iRgbArg2Operand_1=1
iAlphaOperation_1=2
iAlphaBlendSource_1=1
iAlphaArg0_1=1
iAlphaArg1_1=2
iAlphaArg2_1=1
iAlphaArg0Operand_1=3
iAlphaArg1Operand_1=3
iAlphaArg2Operand_1=3
iTextureShader_1=1
iConstantAlpha_1=255
cConstant_2=(color 255 255 255)
iRgbOperation_2=1
iRgbBlendSource_2=1
iRgbArg0_2=1
iRgbArg1_2=1
iRgbArg2_2=1
iRgbArg0Operand_2=1
iRgbArg1Operand_2=1
iRgbArg2Operand_2=1
iAlphaOperation_2=1
iAlphaBlendSource_2=1
iAlphaArg0_2=1
iAlphaArg1_2=1
iAlphaArg2_2=1
iAlphaArg0Operand_2=3
iAlphaArg1Operand_2=3
iAlphaArg2Operand_2=3
iTextureShader_2=1
iConstantAlpha_2=255
cConstant_3=(color 255 255 255)
iRgbOperation_3=1
iRgbBlendSource_3=1
iRgbArg0_3=1
iRgbArg1_3=1
iRgbArg2_3=1
iRgbArg0Operand_3=1
iRgbArg1Operand_3=1
iRgbArg2Operand_3=1
iAlphaOperation_3=1
iAlphaBlendSource_3=1
iAlphaArg0_3=1
iAlphaArg1_3=1
iAlphaArg2_3=1
iAlphaArg0Operand_3=3
iAlphaArg1Operand_3=3
iAlphaArg2Operand_3=3
iTextureShader_3=1
iConstantAlpha_3=255
cConstant_4=(color 255 255 255)
iRgbOperation_4=1
iRgbBlendSource_4=1
iRgbArg0_4=1
iRgbArg1_4=1
iRgbArg2_4=1
iRgbArg0Operand_4=1
iRgbArg1Operand_4=1
iRgbArg2Operand_4=1
iAlphaOperation_4=1
iAlphaBlendSource_4=1
iAlphaArg0_4=1
iAlphaArg1_4=1
iAlphaArg2_4=1
iAlphaArg0Operand_4=3
iAlphaArg1Operand_4=3
iAlphaArg2Operand_4=3
iTextureShader_4=1
iConstantAlpha_4=255
texture 1
bitmap.clipu=0.0
bitmap.clipv=0.0
bitmap.clipw=1.0
bitmap.cliph=1.0
bitmap.Jitter=1.0
bitmap.useJitter=false
bitmap.apply=false
bitmap.cropPlace=0
bitmap.filtering=0
bitmap.monoOutput=1
bitmap.rgbOutput=0
bitmap.alphaSource=2
bitmap.preMultAlpha=false
bitmap.bitmap=BitMap:W:\Database\Stuff\Tryker\Agents\_textures\monster\TR_MO_Kami_caster.png
bitmap.coords=MtlBase:Placement
bitmap.output=MtlBase:Output
bitmap.filename=W:\Database\Stuff\Tryker\Agents\_textures\monster\TR_MO_Kami_caster.png
bitmap.starttime=0f
bitmap.playBackRate=1.0
bitmap.endCondition=0
bitmap.tieTimeToMatIDs=false
bitmap.coords.blur=1.0
bitmap.coords.mapping=0
bitmap.coords.mapChannel=1
bitmap.coords.mappingType=0
bitmap.coords.UVW_Type=0
bitmap.coords.U_Mirror=false
bitmap.coords.V_Mirror=false
bitmap.coords.U_Tile=true
bitmap.coords.V_Tile=true
bitmap.coords.showMapOnBack=true
bitmap.coords.Noise_On=false
bitmap.coords.Noise_Animate=false
bitmap.coords.UVTransform=(matrix3 [1,0,0] [0,1,0] [0,0,1] [0,0,0])
bitmap.coords.realWorldScale=false
bitmap.coords.realWorldHeight=1.0
bitmap.coords.realWorldWidth=1.0
bitmap.coords.phase=0.0
bitmap.coords.V_Tiling=1.0
bitmap.coords.U_Angle=0.0
bitmap.coords.V_Angle=0.0
bitmap.coords.W_Angle=0.0
bitmap.coords.Noise_Amount=1.0
bitmap.coords.Noise_Size=1.0
bitmap.coords.Noise_Levels=1
bitmap.coords.Blur_Offset=0.0
bitmap.coords.U_Offset=0.0
bitmap.coords.V_Offset=0.0
bitmap.coords.U_Tiling=1.0
